-----------------------------------------------------------------------------
Module-Details
-----------------------------------------------------------------------------


GET https://kvv.imp.fu-berlin.de/portal/login
-> JSESSIONID 5c10406f-588c-4c16-96e9-c80d115417de.tomcat1











<!DOCTYPE html>
<html lang="en-US" dir="ltr" class="Mrphs-html">
    <head>
        <meta charset="utf-8">
        <meta name="viewport" content="width=device-width, initial-scale=1">

            <!-- Head material from Tool in PDA mode (will include title and headscripts) -->
    <script type="text/javascript" src="./resource/org.apache.wicket.resource.JQueryResourceReference/jquery/jquery-1.12.4.min-ver-4F252523D4AF0B478C810C2547A63E19.js"></script>
<script type="text/javascript" src="./resource/org.apache.wicket.ajax.AbstractDefaultAjaxBehavior/res/js/wicket-event-jquery.min-ver-F9895CC8E65D4CD054E8B64B9196385E.js"></script>
<script type="text/javascript" src="./resource/org.apache.wicket.ajax.AbstractDefaultAjaxBehavior/res/js/wicket-ajax-jquery.min-ver-5A00F2783FA172481F8A178E6C4F30A6.js"></script>
<script type="text/javascript" id="wicket-ajax-base-url">
/*<![CDATA[*/
Wicket.Ajax.baseUrl="wicket/page?1";
/*]]>*/
</script>
<link rel="stylesheet" type="text/css" href="./resource/org.apache.wicket.extensions.markup.html.repeater.tree.theme.WindowsTheme/windows/theme.min-ver-6404E215747096619591B8431D286A9C.css" />


<script type="text/javascript" src="/library/js/headscripts.js"></script>
<link rel="stylesheet" type="text/css" href="/library/skin/tool_base.css" />
<link rel="stylesheet" type="text/css" href="/library/skin/morpheus-default/tool.css" />
<meta http-equiv="Content-Type" content="text/html; charset=UTF-8" /><meta name="viewport" content="width=device-width, initial-scale=1"><script type="text/javascript" >
/*<![CDATA[*/
Wicket.Event.add(window, "load", function(event) {
setMainFrameHeight( window.name );
;});
/*]]>*/
</script>

    <!-- End of Head material from Tool -->
 <title>FUBMI-KVV : My Workspace : Membership</title>
        <!--[if (lt IE 9)]>
  <link href="/library/skin/morpheus-default/tool-ie.css?version=f113905" rel="stylesheet">
<![endif]-->
<link href="/library/skin/morpheus-default/tool.css?version=f113905" rel="stylesheet" media="screen, tty, tv, handheld, projection">
<link href="/library/skin/morpheus-default/print.css?version=f113905" rel="stylesheet" media="print">
        <link href="/library/webjars/jquery-ui/1.11.3/jquery-ui.min.css?version=f113905" rel="stylesheet" />
        <link href="/library/js/jquery/cluetip/1.2.10/css/jquery.cluetip.css?version=f113905" rel="stylesheet">
        <link href="/library/js/jquery/qtip/jquery.qtip-latest.min.css?version=f113905" rel="stylesheet">
        <link href="/library/webjars/pnotify/2.1.0/pnotify.core.min.css?version=f113905" rel="stylesheet">
        <script src="/library/skin/morpheus-default/js/lib/modernizr.js?version=f113905"></script>

        <script>                                     var portal = {
                "chat": {
                    "enabled": false,
                    "pollInterval": 5000,
            "video" : {
            "enabled": false
            }
                },
                "loggedIn": true,
                "portalPath": "https://kvv.imp.fu-berlin.de/portal",
                "loggedOutUrl": "https://kvv.imp.fu-berlin.de/Shibboleth.sso/Logout",
                "siteId": "~805a8f30-8103-4e87-94c2-f0b318f29af8",
                "siteTitle": "Home",
                "shortDescription" : "",
                "locale": "en-US",
                "user": {
                    "id": "805a8f30-8103-4e87-94c2-f0b318f29af8",
                    "eid": "seedorf96"
                },
                "timeoutDialog" : {
                "enabled": true,
                "seconds": 600
                },
                "toggle" : {
                    "allowauto": false,
                    "tools": false,
                    "sitenav": false // This is not allowed in morpheus
                },
                "pageScriptPath" : "/library/js/",
                "portalCDNQuery" : "?version=f113905"
            };
        </script>

        <!-- inlined tool header contribution -->

        	                        <!-- end inlined tool header contribution -->
    </head>

    <body  class="Mrphs-portalBody workspace"  class="workspace">

        <noscript>
            <span id="portal_js_warn" class="Mrphs-noJs js-warn-no-js">Sakai works much better when JavaScript is enabled. Please enable JavaScript in your Browser.</span>
        </noscript>


        <div  class="Mrphs-portalWrapper">

                        <nav id="skipNav" class="Mrphs-skipNav">
    <ul role="menu" class="Mrphs-skipNav__menu">

                 <li role="menuitem" class="Mrphs-skipNav__menuitem Mrphs-skipNav__menuitem--content">
            <a href="#tocontent" class="Mrphs-skipNav__link" title="jump to content" accesskey="c">
                jump to content
                <span class="accesibility_key">[c]</span>
            </a>
        </li>
        <li role="menuitem" class="Mrphs-skipNav__menuitem Mrphs-skipNav__menuitem--tools">
            <a href="#totoolmenu" class="Mrphs-skipNav__link js-toggle-tools-nav" title="jump to tools list" accesskey="l">
                <i class="fa fa-cubes tools-icon"></i>
                tools
                <span class="accesibility_key">[l]</span>
            </a>
        </li>
        <li role="menuitem" class="Mrphs-skipNav__menuitem Mrphs-skipNav__menuitem--worksite">
            <a href="#sitetabs" id="more-sites-menu" class="Mrphs-skipNav__link js-toggle-sites-nav" title="jump to site list" accesskey="w">
                <i class="fa fa-th all-sites-icon"></i> Sites
                <span class="accesibility_key">[w]</span>
            </a>
        </li>
    </ul>
</nav>

            <div  class="Mrphs-mainHeader is-maximized" >

                                <div class="Mrphs-topHeader">

<header role="banner" class="Mrphs-headerLogo">
    <span class="Mrphs-headerLogo--institution"></span>
    <span class="Mrphs-headerLogo--banner"></span>
</header>


























<!-- START VM includeTabs.vm -->
    <div id="Mrphs-sites-nav" class="siteNavWrap workspace Mrphs-container Mrphs-container--navs">

        <nav id="linkNav" role="navigation" aria-labelledby="sitetabs" class="Mrphs-sitesNav" data-max-tools-int="10" data-max-tools-anchor="Go to the site to view all">
    <h1 class="skip" tabindex="-1" id="sitetabs">Sites list begins here</h1>
    <div id="show-all-sites" tabindex="-1"><i class="fa fa-angle-double-left"></i><span>All Sites</span></div>
    <div id="topnav_container">
        <ul class="Mrphs-sitesNav__menu" id="topnav" role="menubar" aria-label="Sites list begins here">


        		                     <li class="Mrphs-sitesNav__menuitem Mrphs-sitesNav__menuitem--myworkspace  is-selected ">
                        <a class="link-container" href="https://kvv.imp.fu-berlin.de/portal/site/%7Eseedorf96" title="Home" role="menuitem">
                            <i class="fa fa-home"></i>
                            <span class="Mrphs-sitesNav__menuitem--myworkspace-label">Home</span>
                            <span class="Mrphs-sitesNav__drop" tabindex="-1" data-site-id="~805a8f30-8103-4e87-94c2-f0b318f29af8"></span>
                        </a>
                    </li>




                                                    <li class="Mrphs-sitesNav__menuitem ">
                        <a class="link-container" href="https://kvv.imp.fu-berlin.de/portal/site/34339322-7f1f-4e21-adda-bb6214e91cfa" title="Bildverarbeitung S18" role="menuitem" aria-haspopup="true">
                            <span>Bildverarbeitung S18</span>
                        </a>
                        <a class="Mrphs-sitesNav__dropdown" href="#" data-site-id="34339322-7f1f-4e21-adda-bb6214e91cfa" role="separator"></a>
                    </li>




                                                    <li class="Mrphs-sitesNav__menuitem ">
                        <a class="link-container" href="https://kvv.imp.fu-berlin.de/portal/site/77882b68-ea5e-4414-b793-79c3baab65ca" title="K&uuml;nstliche Intelligenz S18" role="menuitem" aria-haspopup="true">
                            <span>K&uuml;nstliche Intelligen ...</span>
                        </a>
                        <a class="Mrphs-sitesNav__dropdown" href="#" data-site-id="77882b68-ea5e-4414-b793-79c3baab65ca" role="separator"></a>
                    </li>




                                                    <li class="Mrphs-sitesNav__menuitem ">
                        <a class="link-container" href="https://kvv.imp.fu-berlin.de/portal/site/b4b7ae00-587e-4518-8bff-77e5670db79f" title="Softwareprojekt: Intelligente Systeme und Robotik S18" role="menuitem" aria-haspopup="true">
                            <span>Softwareprojekt: Inte ...</span>
                        </a>
                        <a class="Mrphs-sitesNav__dropdown" href="#" data-site-id="b4b7ae00-587e-4518-8bff-77e5670db79f" role="separator"></a>
                    </li>




                                                    <li class="Mrphs-sitesNav__menuitem ">
                        <a class="link-container" href="https://kvv.imp.fu-berlin.de/portal/site/8ea778ac-ec7e-481e-a785-ef316cba6995" title="Seminar: Ausgew&auml;hlte Themen der IT-Sicherheit S18" role="menuitem" aria-haspopup="true">
                            <span>Seminar: Ausgew&auml;hlte  ...</span>
                        </a>
                        <a class="Mrphs-sitesNav__dropdown" href="#" data-site-id="8ea778ac-ec7e-481e-a785-ef316cba6995" role="separator"></a>
                    </li>




                                                    <li class="Mrphs-sitesNav__menuitem ">
                        <a class="link-container" href="https://kvv.imp.fu-berlin.de/portal/site/1854d616-b0d6-48a7-bcd4-1ffbe088c791" title="Einf&uuml;hrung in die Visualisierung (Blockseminar) S18" role="menuitem" aria-haspopup="true">
                            <span>Einf&uuml;hrung in die Vis ...</span>
                        </a>
                        <a class="Mrphs-sitesNav__dropdown" href="#" data-site-id="1854d616-b0d6-48a7-bcd4-1ffbe088c791" role="separator"></a>
                    </li>














                     </ul>
    </div>

</nav> <!-- /Mrphs-sitesNav -->

    </div> <!-- /end of div.tabsCssClass -->

<!-- END VM includeTabs.vm -->


<nav id="mastLogin" class="Mrphs-loginNav">



                    <div class="Mrphs-sitesNav__menuitem view-all-sites-btn">
                <a href="javascript:void(0);" title="View All Sites" role="menuitem" aria-haspopup="true">
                    <i class="fa fa-th all-sites-icon"></i> <span class="all-sites-label">Sites</span>
                </a>
            </div>

        <ul id="loginLinks" class="Mrphs-userNav">



                        <li class="Mrphs-userNav__popup js-toggle-user-nav" aria-haspopup="true">



                                        <div id="loginUser" role="menuitem" class="has-avatar Mrphs-userNav__submenuitem--userlink  current-site ">
                                            <a href="javascript:void(0);" class="Mrphs-userNav__drop-btn Mrphs-userNav__submenuitem--profilepicture" style="background-image:url(/direct/profile/805a8f30-8103-4e87-94c2-f0b318f29af8/image/thumb)" tabindex="-1"></a>
                                            <a href="javascript:void(0);" class="Mrphs-userNav__drop-btn Mrphs-userNav__submenuitem--username">Sebastian</a>
                                        </div>



                            <ul class="Mrphs-userNav__subnav is-hidden" role="menu">

                                <li class="Mrphs-userNav__submenuitem Mrphs-userData">
                                    <div class="Mrphs-userNav__submenuitem--profile-and-image">
                                                                                    <div class="has-avatar">
                                                <a class="Mrphs-userNav__submenuitem--profilelink" href="https://kvv.imp.fu-berlin.de/portal/site/%7Eseedorf96/tool-reset/773e0242-4344-4169-9465-97726757103a">
                                                    <span class="Mrphs-userNav__submenuitem--profilepicture" style="background-image:url(/direct/profile/805a8f30-8103-4e87-94c2-f0b318f29af8/image/thumb)" tabindex="-1"></span>
                                                </a>
                                            </div>
                                            <div class="Mrphs-userNav__submenuitem--profile">
                                                <a role="menuitem" href="https://kvv.imp.fu-berlin.de/portal/site/%7Eseedorf96/tool-reset/773e0242-4344-4169-9465-97726757103a">
                                                    <span>Profile</span>
                                                </a>
                                            </div>
                                                                            </div>
                                    <div class="Mrphs-userNav__submenuitem--fullname-and-id">
                                        <div class="Mrphs-userNav__submenuitem--fullname">
                                            Sebastian Seedorf
                                        </div>
                                        <div class="Mrphs-userNav__submenuitem--displayid">
                                            seedorf96
                                        </div>
                                    </div>
                                </li>


                                        <li class="Mrphs-userNav__submenuitem Mrphs-userNav__submenuitem-indented">
                                            <a role="menuitem" href="https://kvv.imp.fu-berlin.de/portal/site/%7Eseedorf96/page/98d865ad-5a10-4f4f-b467-bfad16c86dee" class="Mrphs-userNav__submenuitem--prefs">
                                                <span>Preferences</span>
                                            </a>
                                        </li>




                                        <li class="Mrphs-userNav__submenuitem Mrphs-userNav__submenuitem-indented">
                                            <a id="tutorialLink" role="menuitem" href="#" onclick="startTutorial({});" class="Mrphs-userNav__submenuitem--tutorial">
                                                <span>Tutorial</span>
                                            </a>
                                        </li>






















                            <li class="Mrphs-userNav__logout Mrphs-userNav__submenuitem-indented">
                                <div id="loginLinksImage" class="Mrphs-loginUser" role="menu" tabindex="999">


        <p role="menuitem" class="Mrphs-loginUser__menuitem">
            <a href="https://kvv.imp.fu-berlin.de/portal/logout" title="Log Out" id="loginLink1" class="Mrphs-loginUser__message" data-warning="">
                <i class="login-Icon"></i>
                <span class="Mrphs-login-Message">Log Out</span>
            </a>
        </p>



</div>                            </li>

                        </ul>

            </li>

        </ul> <!-- end of nav#loginLinks-->


</nav>
                </div>

            </div>

                <div id="maxToolsText" style="display: none">Go to the site to view all</div>
    <div id="maxToolsInt" style="display: none">10</div>
    <div id="refreshNotificationText" style="display: none"><a href="javascript:location.reload()">Reload</a> to see your updated favorite sites</div>
    <div id="addToFavoritesText" style="display: none">Add to favorites</div>
    <div id="removeFromFavoritesText" style="display: none">Remove from favorites</div>

    <div id="selectSiteModal" class="outscreen">

        <ul id="otherSitesMenu">


                <li><a href="https://kvv.imp.fu-berlin.de/portal/site/%7Eseedorf96/page/98d865ad-5a10-4f4f-b467-bfad16c86dee"><span>Preferences</span></a></li>


            <li class="otherSitesMenuClose"><a href="javascript:void(0);"><i class="fa fa-times"></i></a></li>
        </ul>

        <div id="selectSite">
            <!-- View all sites, add new site, preferences -->
            <ul class="tab-bar">
                <li class="tab-btn active" data-tab-target="otherSitesCategorWrap"><h2 class="favorites-tab-label">Sites</h2></li>
                <li class="organizeFavorites tab-btn" data-tab-target="organizeFavorites">
                    <h2 class="favorites-tab-label"><span class="favorites-desktop">Organize Favorites</span><span class="favorites-mobile">Favorites</span> <span class="favoriteCount"></span></h2></li>
            </ul>

            <div class="tab-pane">
                <div class="tab-box" id="otherSitesCategorWrap">

                    <div id="otherSiteSearch">
                        <label class="sr-only" for="txtSearch">Search sites in this drawer"</label>
                        <input type="text" id="txtSearch" name="txtSearch" maxlength="50" placeholder=" Search sites in this drawer">
                        <a id="otherSiteSearchClear" class="other-site-search-clear" href="javascript:void(0);"></a>
                    </div>
                    <div id="noSearchResults" class="is-hidden">No search results found</div>



                    <div class="moresites-left-col">
                                                                                    <div class="fav-sites-term">
                                                                            <h3 class="favorites-term-header">Sommersemester 2018</h3>

                                    <ul class="otherSitesCategorList favoriteSiteList">
                                                                                                            <li class="fav-sites-entry  ">
                                                        	<a class="site-favorite-btn" data-site-id="34339322-7f1f-4e21-adda-bb6214e91cfa" href="javascript:void(0);"></a>

                            <div class="fav-title ">
                            	<a href="https://kvv.imp.fu-berlin.de/portal/site/34339322-7f1f-4e21-adda-bb6214e91cfa" title="Bildverarbeitung S18">
                                                                            <span class="fullTitle">Bildverarbeitung S18</span>
                                                                    </a>
                            </div>
                            <a href="#" id="34339322-7f1f-4e21-adda-bb6214e91cfa" class="toolMenus"><i class="fa fa-chevron-down"></i></a>
                        </li>
                                                                                                                                <li class="fav-sites-entry  ">
                                                        	<a class="site-favorite-btn" data-site-id="1854d616-b0d6-48a7-bcd4-1ffbe088c791" href="javascript:void(0);"></a>

                            <div class="fav-title ">
                            	<a href="https://kvv.imp.fu-berlin.de/portal/site/1854d616-b0d6-48a7-bcd4-1ffbe088c791" title="Einf&uuml;hrung in die Visualisierung (Blockseminar) S18">
                                                                            <span class="fullTitle">Einf&uuml;hrung in die Vis ...</span>
                                                                    </a>
                            </div>
                            <a href="#" id="1854d616-b0d6-48a7-bcd4-1ffbe088c791" class="toolMenus"><i class="fa fa-chevron-down"></i></a>
                        </li>
                                                                                                                                <li class="fav-sites-entry  ">
                                                        	<a class="site-favorite-btn" data-site-id="77882b68-ea5e-4414-b793-79c3baab65ca" href="javascript:void(0);"></a>

                            <div class="fav-title ">
                            	<a href="https://kvv.imp.fu-berlin.de/portal/site/77882b68-ea5e-4414-b793-79c3baab65ca" title="K&uuml;nstliche Intelligenz S18">
                                                                            <span class="fullTitle">K&uuml;nstliche Intelligen ...</span>
                                                                    </a>
                            </div>
                            <a href="#" id="77882b68-ea5e-4414-b793-79c3baab65ca" class="toolMenus"><i class="fa fa-chevron-down"></i></a>
                        </li>
                                                                                                                                <li class="fav-sites-entry  ">
                                                        	<a class="site-favorite-btn" data-site-id="8ea778ac-ec7e-481e-a785-ef316cba6995" href="javascript:void(0);"></a>

                            <div class="fav-title ">
                            	<a href="https://kvv.imp.fu-berlin.de/portal/site/8ea778ac-ec7e-481e-a785-ef316cba6995" title="Seminar: Ausgew&auml;hlte Themen der IT-Sicherheit S18">
                                                                            <span class="fullTitle">Seminar: Ausgew&auml;hlte  ...</span>
                                                                    </a>
                            </div>
                            <a href="#" id="8ea778ac-ec7e-481e-a785-ef316cba6995" class="toolMenus"><i class="fa fa-chevron-down"></i></a>
                        </li>
                                                                                                                                <li class="fav-sites-entry  ">
                                                        	<a class="site-favorite-btn" data-site-id="b4b7ae00-587e-4518-8bff-77e5670db79f" href="javascript:void(0);"></a>

                            <div class="fav-title ">
                            	<a href="https://kvv.imp.fu-berlin.de/portal/site/b4b7ae00-587e-4518-8bff-77e5670db79f" title="Softwareprojekt: Intelligente Systeme und Robotik S18">
                                                                            <span class="fullTitle">Softwareprojekt: Inte ...</span>
                                                                    </a>
                            </div>
                            <a href="#" id="b4b7ae00-587e-4518-8bff-77e5670db79f" class="toolMenus"><i class="fa fa-chevron-down"></i></a>
                        </li>
                                                                                                </ul>
                                </div>
                                                                                                                <div class="fav-sites-term">
                                                                            <h3 class="favorites-term-header">Wintersemester 2017/2018</h3>

                                    <ul class="otherSitesCategorList favoriteSiteList">
                                                                                                            <li class="fav-sites-entry  ">
                                                        	<a class="site-favorite-btn" data-site-id="91c6e9cc-58eb-486d-ab99-a22a40997d1b" href="javascript:void(0);"></a>

                            <div class="fav-title ">
                            	<a href="https://kvv.imp.fu-berlin.de/portal/site/91c6e9cc-58eb-486d-ab99-a22a40997d1b" title="H&ouml;here Algorithmik W17/18">
                                                                            <span class="fullTitle">H&ouml;here Algorithmik W17/18</span>
                                                                    </a>
                            </div>
                            <a href="#" id="91c6e9cc-58eb-486d-ab99-a22a40997d1b" class="toolMenus"><i class="fa fa-chevron-down"></i></a>
                        </li>
                                                                                                                                <li class="fav-sites-entry  ">
                                                        	<a class="site-favorite-btn" data-site-id="141fb3bd-1333-41b2-adc3-b5277e0adcbd" href="javascript:void(0);"></a>

                            <div class="fav-title ">
                            	<a href="https://kvv.imp.fu-berlin.de/portal/site/141fb3bd-1333-41b2-adc3-b5277e0adcbd" title="Mustererkennung / Machine Learning W17/18">
                                                                            <span class="fullTitle">Mustererkennung / Mac ...</span>
                                                                    </a>
                            </div>
                            <a href="#" id="141fb3bd-1333-41b2-adc3-b5277e0adcbd" class="toolMenus"><i class="fa fa-chevron-down"></i></a>
                        </li>
                                                                                                                                <li class="fav-sites-entry  ">
                                                        	<a class="site-favorite-btn" data-site-id="3a2a58ee-fb9a-4682-a15f-9732106fb569" href="javascript:void(0);"></a>

                            <div class="fav-title ">
                            	<a href="https://kvv.imp.fu-berlin.de/portal/site/3a2a58ee-fb9a-4682-a15f-9732106fb569" title="Robotik W17/18">
                                                                            <span class="fullTitle">Robotik W17/18</span>
                                                                    </a>
                            </div>
                            <a href="#" id="3a2a58ee-fb9a-4682-a15f-9732106fb569" class="toolMenus"><i class="fa fa-chevron-down"></i></a>
                        </li>
                                                                                                                                <li class="fav-sites-entry  ">
                                                        	<a class="site-favorite-btn" data-site-id="7d0a6991-f803-4f6f-a6d3-8d705216e285" href="javascript:void(0);"></a>

                            <div class="fav-title ">
                            	<a href="https://kvv.imp.fu-berlin.de/portal/site/7d0a6991-f803-4f6f-a6d3-8d705216e285" title="Seminar: Verteilte Algorithmen W17/18">
                                                                            <span class="fullTitle">Seminar: Verteilte Al ...</span>
                                                                    </a>
                            </div>
                            <a href="#" id="7d0a6991-f803-4f6f-a6d3-8d705216e285" class="toolMenus"><i class="fa fa-chevron-down"></i></a>
                        </li>
                                                                                                </ul>
                                </div>
                                                                                                                            </div>

                    <div class="moresites-right-col">
                                                                                                                                                                                            <div class="fav-sites-term">
                                                                            <h3 class="favorites-term-header">OTHER</h3>

                                        <ul class="otherSitesCategorList favoriteSiteList">
                                            <!-- anchor "my workspace" to the top of the list -->
                                                                                                                                                                        <li class="fav-sites-entry is-selected  my-workspace ">

                            <div class="fav-title  fav-title-myworkspace ">
                            	<a href="https://kvv.imp.fu-berlin.de/portal/site/%7Eseedorf96" title="My Workspace">
                                                                            <i class="fa fa-home"></i><span class="fullTitle">Home</span>
                                                                    </a>
                            </div>
                            <a href="#" id="~805a8f30-8103-4e87-94c2-f0b318f29af8" class="toolMenus"><i class="fa fa-chevron-down"></i></a>
                        </li>

                                                                                                                                                                                </ul>
                                                                    </div>
                                                                        </div>

                </div><!--  end of #otherSitesCategorWrap -->

                <div style="display: none" class="tab-box" id="organizeFavorites">
                    <h2 class="heading">Organize Favorites</h2>

                    <ul id="organizeFavoritesList" class="organizeFavoritesList favoriteSiteList">
                    </ul>

                    <!-- Items are put here when unfavorited from the "organize" screen -->
                    <ul id="organizeFavoritesPurgatoryList" class="favoriteSiteList">
                    </ul>
                </div>
            </div>
        </div>
    </div>

            <!-- START VM includePageWithNav.vm -->

    <nav class="Mrphs-siteHierarchy">


                                            <span class="Mrphs-hierarchy--siteName" title="Home">
                    <a href="https://kvv.imp.fu-berlin.de/portal/site/%7Eseedorf96/page-reset/0a7c947e-5a97-4da7-80f9-38d5a1df3dab">Home</a>
                </span>
                <span class="Mrphs-hierarchy--siteNameSeparator Mrphs-hierarchy--separator"><i class="fa fa-lg fa-angle-right"></i></span>


                                                                        <a href="https://kvv.imp.fu-berlin.de/portal/site/%7Eseedorf96/tool-reset/9df8c796-7d6b-4416-8ba1-f505ea6b8224" title="Tool Home" class="Mrphs-hierarchy-item Mrphs-hierarchy--toolName">
                <span class="Mrphs-breadcrumb--reset-icon fa fa-share" aria-hidden="true"></span>
                <span class="Mrphs-breadcrumb--icon icon-sakai--fu-berlin-joinablecoursebrowser "></span>
                <span>Membership</span>
            </a>
                                                                                                                                                                                                                                </nav>

    <div id="pageBody">


        <!-- START VM includePageNav.vm -->

<div id="toolMenuWrap" class="Mrphs-container Mrphs-container--nav-tools" >


    <h1 class="skip" tabindex="-1" id="totoolmenu">Tools list begins here</h1>
    <!--Added this check in to make sure that we just don't have an empty img element in the page. -->

	<div id="toolSubsitesContainer">
		<nav id="toolMenu" role="navigation" aria-label="Tools list begins here" class="Mrphs-toolsNav__menu">
			<ul>
				<li class="Mrphs-toolsNav__menuitem Mrphs-collapseTools js-toggle-nav">
					<i class="fa fa-lg fa-angle-double-left"></i>
				</li>





								<li>
									<a class="Mrphs-toolsNav__menuitem--link " href="https://kvv.imp.fu-berlin.de/portal/site/%7Eseedorf96/page/0a7c947e-5a97-4da7-80f9-38d5a1df3dab" title="Overview - Display the system message of the day | For displaying information about a user's Home | Show a summary of calendar events in Home | Display recent announcements, updated as messages arrive | For displaying Site information">
										<span class="Mrphs-toolsNav__menuitem--icon icon-sakai--sakai-motd "></span>
										<span class="Mrphs-toolsNav__menuitem--title">Overview</span>
									</a>
								</li>







								<li>
									<a class="Mrphs-toolsNav__menuitem--link " href="https://kvv.imp.fu-berlin.de/portal/site/%7Eseedorf96/tool/773e0242-4344-4169-9465-97726757103a" title="Profile - Edit your profile, post status updates, search for people with common interests, view their profile and add them as connections">
										<span class="Mrphs-toolsNav__menuitem--icon icon-sakai--sakai-profile2 "></span>
										<span class="Mrphs-toolsNav__menuitem--title">Profile</span>
									</a>
								</li>





						<li class="Mrphs-toolsNav__menuitem is-current">
							<a class="Mrphs-toolsNav__menuitem--link " href="https://kvv.imp.fu-berlin.de/portal/site/%7Eseedorf96/tool-reset/9df8c796-7d6b-4416-8ba1-f505ea6b8224" title="Membership" role="presentation">
								<span class="Mrphs-toolsNav__menuitem--icon icon-sakai--fu-berlin-joinablecoursebrowser  icon-active"></span>
								<span class="Mrphs-toolsNav__menuitem--title">Membership</span>
							</a>
						</li>





								<li>
									<a class="Mrphs-toolsNav__menuitem--link " href="https://kvv.imp.fu-berlin.de/portal/site/%7Eseedorf96/tool/4bfecb9c-6f1a-48de-a5a0-6cdba0a4dca7" title="Calendar - For posting and viewing deadlines, events, etc.">
										<span class="Mrphs-toolsNav__menuitem--icon icon-sakai--sakai-schedule "></span>
										<span class="Mrphs-toolsNav__menuitem--title">Calendar</span>
									</a>
								</li>







								<li>
									<a class="Mrphs-toolsNav__menuitem--link " href="https://kvv.imp.fu-berlin.de/portal/site/%7Eseedorf96/tool/0626f18c-c451-47e5-91b0-06e58160d3ba" title="Resources - For posting documents, URLs to other websites, etc.">
										<span class="Mrphs-toolsNav__menuitem--icon icon-sakai--sakai-resources "></span>
										<span class="Mrphs-toolsNav__menuitem--title">Resources</span>
									</a>
								</li>







								<li>
									<a class="Mrphs-toolsNav__menuitem--link " href="https://kvv.imp.fu-berlin.de/portal/site/%7Eseedorf96/tool/80fd81ac-b83b-484a-8ce0-90f4ac7eccfc" title="Announcements - For posting current, time-critical information">
										<span class="Mrphs-toolsNav__menuitem--icon icon-sakai--sakai-announcements "></span>
										<span class="Mrphs-toolsNav__menuitem--title">Announcements</span>
									</a>
								</li>







								<li>
									<a class="Mrphs-toolsNav__menuitem--link " href="https://kvv.imp.fu-berlin.de/portal/site/%7Eseedorf96/tool/ba5da8e1-73a3-4d1f-a5c8-fa9f8ffc04ee" title="Worksite Setup - Modify your sites and create new ones">
										<span class="Mrphs-toolsNav__menuitem--icon icon-sakai--sakai-sitesetup "></span>
										<span class="Mrphs-toolsNav__menuitem--title">Worksite Setup</span>
									</a>
								</li>







								<li>
									<a class="Mrphs-toolsNav__menuitem--link " href="https://kvv.imp.fu-berlin.de/portal/site/%7Eseedorf96/tool/540205b1-6dd4-4b86-be66-5a24677e416c" title="Preferences - Tool to view and modify user's Preferences">
										<span class="Mrphs-toolsNav__menuitem--icon icon-sakai--sakai-preferences "></span>
										<span class="Mrphs-toolsNav__menuitem--title">Preferences</span>
									</a>
								</li>







								<li>
									<a class="Mrphs-toolsNav__menuitem--link " href="https://kvv.imp.fu-berlin.de/portal/site/%7Eseedorf96/tool/7fb5ce06-8134-4765-8c46-7cf370869516" title="Trusted Applications - Tool to allow you to manage applications that can access the service.">
										<span class="Mrphs-toolsNav__menuitem--icon icon-sakai--sakai-oauth "></span>
										<span class="Mrphs-toolsNav__menuitem--title">Trusted Applications</span>
									</a>
								</li>







								<li>
									<a class="Mrphs-toolsNav__menuitem--link " href="https://kvv.imp.fu-berlin.de/portal/site/%7Eseedorf96/tool/be32c343-c832-40f1-ba80-6720cdbc3935" title="Account - View and modify my user profile">
										<span class="Mrphs-toolsNav__menuitem--icon icon-sakai--sakai-singleuser "></span>
										<span class="Mrphs-toolsNav__menuitem--title">Account</span>
									</a>
								</li>







								<li>
									<a class="Mrphs-toolsNav__menuitem--link " href="https://kvv.imp.fu-berlin.de/portal/site/%7Eseedorf96/tool/198cd9d5-f2da-4eb2-8143-73967a778e20" title="FU Site Browser - Browse all Sakai sites via a filterable list">
										<span class="Mrphs-toolsNav__menuitem--icon icon-sakai--fu-berlin-coursebrowser "></span>
										<span class="Mrphs-toolsNav__menuitem--title">FU Site Browser</span>
									</a>
								</li>







								<li>
									<a class="Mrphs-toolsNav__menuitem--link " href="https://kvv.imp.fu-berlin.de/portal/site/%7Eseedorf96/tool/4f46d576-465b-4a7a-9f41-6fc942d010f2" title="Fundgrube - Zentrale Anlaufstelle für das Hinzufügen und Suchen verloren gegangener Gegenstände">
										<span class="Mrphs-toolsNav__menuitem--icon icon-sakai--sakai-fundgrube "></span>
										<span class="Mrphs-toolsNav__menuitem--title">Fundgrube</span>
									</a>
								</li>







								<li>
									<a class="Mrphs-toolsNav__menuitem--link " href="https://kvv.imp.fu-berlin.de/portal/site/%7Eseedorf96/tool/d9dd63d8-e495-4fc6-b322-fd6fbeec3e06" title="Site Info - For showing worksite information and site participants">
										<span class="Mrphs-toolsNav__menuitem--icon icon-sakai--sakai-siteinfo "></span>
										<span class="Mrphs-toolsNav__menuitem--title">Site Info</span>
									</a>
								</li>









					<li class="Mrphs-toolsNav__menuitem--help">
						<a class="Mrphs-toolsNav__menuitem--link" accesskey="6" href="https://kvv.imp.fu-berlin.de/portal/help/main" target="_blank" onclick="openWindow('https://kvv.imp.fu-berlin.de/portal/help/main', 'Help', 'resizable=yes,toolbar=no,scrollbars=yes,menubar=yes,width=1024,height=768'); return false" title="Help">
							<span  class="Mrphs-toolsNav__menuitem--icon icon-sakai--help"> </span>
							<span class="Mrphs-toolsNav__menuitem--title">Help</span>
							<span class="skip">Opens in a new window</span>
						</a>
					</li>



			</ul>
		</nav>

		 	</div>
</div>

<!-- END VM includePageNav.vm -->


    <div class="Mrphs-pagebody">






<!-- START VM includePageBody.vm -->

<h1 class="skip" tabindex="-1" id="tocontent">Content begins here</h1>


    <main id="content" class="Mrphs-mainContent " role="main">



        <div id="col1" class="Mrphs-pageColumns Mrphs-pageColumns--single">




                    <!-- start Tool Container -->


                    <div class="Mrphs-container Mrphs-fu-berlin-joinablecoursebrowser">

                    <!-- start Tool Header -->




                            <nav class="Mrphs-toolTitleNav Mrphs-container--toolTitleNav">



                                        <h2 class="Mrphs-toolTitleNav__title">
                                            <a href="https://kvv.imp.fu-berlin.de/portal/site/%7E805a8f30-8103-4e87-94c2-f0b318f29af8/tool-reset/9df8c796-7d6b-4416-8ba1-f505ea6b8224" title="Tool Home: Membership">
                                                <span class="Mrphs-toolTitleNav__link Mrphs-toolTitleNav__link--reset"></span>
                                                <span class="Mrphs-toolTitleNav__text">Membership</span>
                                            </a>
					    <span class="Mrphs-toolTitleNav__addLeft"></span>
                                        </h2>



                                <div class="Mrphs-toolTitleNav__button_container">


				                <span class="Mrphs-toolTitleNav__addRight"></span>

                                    <a class="Mrphs-toolTitleNav__link Mrphs-toolTitleNav__link--directurl" href="#Main9df8c796x7d6bx4416x8ba1xf505ea6b8224_directurl" rel="#Main9df8c796x7d6bx4416x8ba1xf505ea6b8224_directurl" title="Direct link to this tool">
                                        <span class="Mrphs-itemTitle">Link</span>
                                    </a>
                                    <div id="Main9df8c796x7d6bx4416x8ba1xf505ea6b8224_directurl" class="Mrphs-directUrl Mrphs-directUrl__dropDown">
                                        <i class="fa fa-times dropDown_close"></i>

                                            <input type="checkbox" id="directToolUrl-1" onclick="toggleShortUrlOutput('https://kvv.imp.fu-berlin.de/portal/directtool/9df8c796-7d6b-4416-8ba1-f505ea6b8224/', this, 'Main9df8c796x7d6bx4416x8ba1xf505ea6b8224_urlholder');" class="Mrphs-directUrl__checkbox"><label for="directToolUrl-1">Short URL</label>


                                        <textarea class="Mrphs-directUrl__textarea Main9df8c796x7d6bx4416x8ba1xf505ea6b8224_urlholder" >https://kvv.imp.fu-berlin.de/portal/directtool/9df8c796-7d6b-4416-8ba1-f505ea6b8224/</textarea>
                                    </div>




                                        <a class="Mrphs-toolTitleNav__link Mrphs-toolTitleNav__link--help-popup" href="https://kvv.imp.fu-berlin.de/portal/help/main?help=fu-berlin-joinablecoursebrowser" title="Help for Membership" target="_blank" onclick="openWindow('https://kvv.imp.fu-berlin.de/portal/help/main?help=fu-berlin-joinablecoursebrowser', 'Help', 'resizable=yes,toolbar=no,scrollbars=yes,menubar=yes,width=1024,height=768'); return false">
                                            <span class="Mrphs-itemTitle">Help</span>
                                            <span class="skip">Opens in a new window</span>
                                        </a>



                                </div>

                            </nav>


                    <!-- END Tool Header -->

                    <!-- START Tool Body -->


                        <!-- Buffered Body Tool Content -->

	<div class="portletBody">
		<div class="" id="id1f">

</div>


				<link rel="stylesheet" href="./resource/net.stellers.sakai.fu_api.wicket.pages.coursebrowser.CourseDetailsBasePage2/css/coursebrowser-custom-ver-EEFBFAD54F18E210A900685298018E28.css"/>


			<div>
				<div>


	<div class="course_wrapper container-fluid">
		<div class="course row">
			<div class="col-lg-9 col-sm-12 col-xs-12">
				<ul class="coursecrumbs">
					<li><a href="./page?1-1.ILinkListener-tablerow-1-tablecell-1-crumb_sitetype">All Site Types</a><i class="fa fa-chevron-right"></i></li>
					<li><a href="./page?1-1.ILinkListener-tablerow-1-tablecell-1-crumb_department">Informatik</a><i class="fa fa-chevron-right"></i></li>
					<li><a href="./page?1-1.ILinkListener-tablerow-1-tablecell-1-crumb_term">All Terms</a><i class="fa fa-chevron-right"></i></li>
				</ul>
				<span class="coursecrumbs active">Bildverarbeitung S18</span>
			</div>

			<div class="col-lg-3 col-xs-12 pagi">
				<a rel="prev" class="prev" href="./page?1-1.ILinkListener-tablerow-1-tablecell-1-link_prev" title="Go to the previous page"><i class="fa fa-angle-left"  aria-hidden="true"></i> Previous page</a>
				<span>|</span>
				<a href="./page?1-1.ILinkListener-tablerow-1-tablecell-1-link_backtobrowser" title="Gehe zurück zur Auswahl">Back to selection</a>
				<span>|</span>
				<a rel="next" class="next" href="./page?1-1.ILinkListener-tablerow-1-tablecell-1-link_next" title="Go to the next page">Next page <i class="fa fa-angle-right"  aria-hidden="true"></i></a>
			</div>
		</div>

<!-- Menü -->
		<div class="course-menu navbar navbar-default" role="navigation">
			<div class="container-fluid">
				<div class="navbar-header nav-tabs">
					<button type="button" class="navbar-toggle" data-toggle="collapse" data-target=".navbar-menubuilder">
						<span class="sr-only">Toggle navigation</span>
						<span class="icon-bar"></span>
						<span class="icon-bar"></span>
						<span class="icon-bar"></span>
					</button>
				</div>
				<div class="collapse navbar-collapse navbar-menubuilder">
					<ul class="nav navbar-nav navbar-left">
						<li class="active"><a data-toggle="tab" href="#fu_tab_start_34339322-7f1f-4e21-adda-bb6214e91cfa">Start & Description</a></li>
						<li><a data-toggle="tab" href="#fu_tab_events_34339322-7f1f-4e21-adda-bb6214e91cfa">Events</a></li>
						<li><a data-toggle="tab" href="#fu_tab_news_34339322-7f1f-4e21-adda-bb6214e91cfa">News & Announcements</a></li>
						<li><a data-toggle="tab" href="#fu_tab_resources_34339322-7f1f-4e21-adda-bb6214e91cfa">Resources</a></li>
					</ul>
					<ul class="nav navbar-nav navbar-right">

						<li>
						 <a target="_blank" href="https://kvv.imp.fu-berlin.de/vv/details?s=SS 18&amp;lvnr=19303001" title="URL for directly linking this site"><span class="fa fa-link" aria-hidden="true"></span>&nbsp;Link</a>
						</li>

					</ul>

				</div>
			</div>
		</div>

		<div class="container-fluid coursebox">
				<div class="tab-content ">

<!-- Start & Beschreibung -->
					<div id="fu_tab_start_34339322-7f1f-4e21-adda-bb6214e91cfa" class="tab-pane fade in active">

						<h1 class="row"><a href="https://kvv.imp.fu-berlin.de/portal/site/34339322-7f1f-4e21-adda-bb6214e91cfa" class="titlelink" target="_blank" title="Go to KVV site">Bildverarbeitung S18 <i class="fa fa-external-link"></i></a></h1>

							<div class="row">
								<div class="col-lg-7 col-sm-12 col-xs-12 quick">
									<div class="course-headline">Description</div>
									<hr>
									<span><p>In der Vorlesung werden grundlegende Methoden der Bildverarbeitung vorgestellt. Folgende Themen werden behandelt:</p>  <ul>  <li>Bilder, Bildsensoren</li>  <li>Farbr&auml;ume</li>  <li>Bildstatistiken</li>  <li>Histogramme</li>  <li>Filterverfahren</li>  <li>Faltung und Faltungssatz</li>  <li>Diskrete Fouriertransformation</li>  <li>Schnelle Fouriertransformation</li>  <li>Diskrete Cosinustransformation</li>  <li>JPEG</li>  <li>Haar-Wavelets</li>  <li>Bildpyramiden</li>  <li>Bildmischung</li> </ul>  <p>&nbsp;</p>  <p>&nbsp;</p>  <p>&nbsp; </p><h3>Literatur</h3> <p></p>  <p>&nbsp;</p>  <p>Rafael Gonzalez, C., and Richard Woods. &quot;Digital image processing&quot; Pearson Education.</p>  <p>&nbsp;</p>  <p>&nbsp; </p><h3>Informationen f&uuml;r Studenten</h3> <p></p>  <p>&nbsp;</p>  <p>&Uuml;bungen siehe <a href="http://www.fu-berlin.de/vv/de/lv/442393?query=g%C3%B6hring&amp;sm=383825" target="_blank" rel="noopener">19303002</a></p></span>
								</div>

								<div class="col-lg-offset-1 col-lg-4 col-sm-6 col-xs-12 quick">
									<div class="course-headline">Basic Course Info</div>
									<hr>
									<table class="blind">
										<tr>
											<th class="col-xs-4">Course No</th>
											<th class="col-xs-5">Course Type</th>
											<th class="col-xs-offset-2 col-xs-1">Hours</th>
										</tr>
										<tr>
											<td class="col-xs-4"><span>19303001</span></td>
											<td class="col-xs-5"><span>Vorlesung</span></td>
											<td class="col-xs-offset-2 col-xs-1"><span>2</span></td>
										</tr><tr>
											<td class="col-xs-4"><span>19303002</span></td>
											<td class="col-xs-5"><span>Übung</span></td>
											<td class="col-xs-offset-2 col-xs-1"><span>2</span></td>
										</tr>

									</table>
									<hr>
									<table class="blind">
										<tr>
											<th class="col-xs-5">Time Span</th>
											<td class="col-xs-7"><span>18.04.2018 - 18.07.2018</span></td>
										</tr>
										<tr>
											<th class="col-xs-5">Instructors</th>
											<td class="col-xs-7">
												<div>
													<span>Daniel Göhring</span>
												</div>

											</td>
										</tr>
									</table>
									<hr>
								</div>

								<div class="col-lg-offset-1 col-lg-4 col-sm-6 col-xs-12 quick ordnung">
									<div class="course-headline">Study Regulation</div>
									<hr>
									<button data-target="#fu_studyregs_34339322-7f1f-4e21-adda-bb6214e91cfa" data-toggle="collapse" name="tablerow:1:tablecell:1:tab_start:studyregstoggle" id="id20">Study Regulations <span class="caret"></span></button>

									<div id="fu_studyregs_34339322-7f1f-4e21-adda-bb6214e91cfa" class="studien collapse">
										<table class="blind">
											<tr>
												<td>0086c_k150</td>
												<td>2014, BSc Informatik (Mono), 150 LPs</td>
											</tr><tr>
												<td>0087d_k90 </td>
												<td>2015, BSc Informatik (Kombi), 90 LPs</td>
											</tr><tr>
												<td>0088d_m60</td>
												<td>2015, MSc Informatik (Kombi), 60 LPs</td>
											</tr><tr>
												<td>0089c_MA120</td>
												<td>2014, MSc Informatik (Mono), 120 LPs</td>
											</tr><tr>
												<td>0207b_m37</td>
												<td>2015, MSc Informatik (Lehramt), 37 LPs</td>
											</tr><tr>
												<td>0208b_m42</td>
												<td>2015, MSc Informatik (Lehramt), 42 LPs</td>
											</tr><tr>
												<td>0458a_m37</td>
												<td>2015, MSc Informatik (Lehramt), 37 LPs</td>
											</tr><tr>
												<td>0471a_m42</td>
												<td>2015, MSc Informatik (Lehramt), 42 LPs</td>
											</tr><tr>
												<td>0511a_m72</td>
												<td>2016, MSc Informatik (Lehramt), 72 LPs</td>
											</tr>

										</table>
									</div>
									<hr>
								</div>
							</div>

					</div>

<!-- Veranstaltungstermine -->
					<div id="fu_tab_events_34339322-7f1f-4e21-adda-bb6214e91cfa" class="tab-pane fade">

							<h1 class="row"><a href="https://kvv.imp.fu-berlin.de/portal/site/34339322-7f1f-4e21-adda-bb6214e91cfa" class="titlelink" target="_blank" title="Go to KVV site">Bildverarbeitung S18 <i class="fa fa-external-link"></i></a></h1>

							<div class="row">
								<div class="col-lg-6 col-sm-12 col-xs-12 quick">
									<div class="course-headline">Main Events</div>

									<hr>
									<table class="table table-striped table-condensed">
										<tr>
											<th class="col-xs-2">Day</th>
											<th class="col-xs-3">Time</th>
											<th class="col-xs-4">Location</th>
											<th class="col-xs-3">Details</th>
										</tr>
										<tr>
											<td><span>Wednesday</span></td>
											<td><span>10-12</span></td>
											<td><span>T9/SR 006 Seminarraum</span></td>
											<td><span></span></td>
										</tr>

									</table>
									<hr>
								</div>

								<div class="col-lg-6 col-sm-12 col-xs-12 quick">
									<div class="course-headline">Accompanying Events</div>
									<hr>
									<table class="table table-striped table-condensed">
										<tr>
											<th class="col-xs-2">Day</th>
											<th class="col-xs-3">Time</th>
											<th class="col-xs-4">Location</th>
											<th class="col-xs-3">Details</th>
										</tr>
										<tr>
											<td><span>Wednesday</span></td>
											<td><span>12-14</span></td>
											<td><span>T9/SR 006 Seminarraum</span></td>
											<td><span>Übung 01</span></td>
										</tr>

									</table>
									<hr>
								</div>

							</div>

					</div>

<!-- News & Announcements -->
					<div id="fu_tab_news_34339322-7f1f-4e21-adda-bb6214e91cfa" class="tab-pane fade">

						<h1 class="row"><a href="https://kvv.imp.fu-berlin.de/portal/site/34339322-7f1f-4e21-adda-bb6214e91cfa" class="titlelink" target="_blank" title="Go to KVV site">Bildverarbeitung S18 <i class="fa fa-external-link"></i></a></h1>

							<div class="row">
								<div class="col-lg-6 col-sm-12 col-xs-12 news">
									<div class="course-headline">Most Recent Announcement</div>
									<hr>
									<h4><span></span>:&nbsp;&nbsp;<span></span></h4>
									<div>Currently there are no public announcements for this course.</div>
									<br><br>
									<small></small>
								</div>


								<div class="col-lg-6 col-sm-12 col-xs-12 news">
									<div class="course-headline">Older announcements</div>


									<hr>
								</div>
							</div>
					</div>

<!-- Lehrmaterialien -->
					<div id="fu_tab_resources_34339322-7f1f-4e21-adda-bb6214e91cfa" class="tab-pane fade">

							<h1 class="row"><a href="https://kvv.imp.fu-berlin.de/portal/site/34339322-7f1f-4e21-adda-bb6214e91cfa" class="titlelink" target="_blank" title="Go to KVV site">Bildverarbeitung S18 <i class="fa fa-external-link"></i></a></h1>

							<div class="row">
								<div class="col-xs-12">
									<div class="row tree-theme-windows">
	<div>
	<div id="id21" class="tree-branch tree-branch-last">
		<div class="tree-node" id="id22">
	<span id="id23" class="tree-junction">&#160;</span>
	<span class="tree-content"><a class="tree-folder-other" href="https://kvv.imp.fu-berlin.de/access/content/group/34339322-7f1f-4e21-adda-bb6214e91cfa/lecture01-color-spaces.pdf">lecture01-color-spaces.pdf</a></span>
</div>

	</div>
</div>
</div>
								</div>
							</div>

					</div>


				</div>

		</div>
	</div>


</div>
			</div>
			<div>
<form id="id24" method="post" action="./page?1-1.IFormSubmitListener-showallform-showallform"><div style="width:0px;height:0px;position:absolute;left:-100px;top:-100px;overflow:hidden"><input type="hidden" name="id24_hf_0" id="id24_hf_0" /></div>
	<fieldset>
		<input type="submit" name="showbutton" id="id25" value="Show all 9"/>
	</fieldset>
</form>
</div>





			<script type="text/javascript">
/*<![CDATA[*/

				setMainFrameHeight(window.name);

/*]]>*/
</script>


	</div>

                        <!-- End Buffered Body Tool Content -->


                    <!-- end Tool Body -->

                    </div>

                    <!-- end Tool Container -->



        </div>


    </main> <!-- END of main.Mrphs-mainContent -->

<!-- END VM includePageBody.vm -->
        <div class="Mrphs-container Mrphs-container--footer">


        <footer id="footer" role="contentinfo" class="Mrphs-footer">

            <ul id="footer-links" class="Mrphs-footer--nav Mrphs-footer--nav__main">


                    <li>
                        <span><a href="/portal/site/!gateway"><span id="footer-link-icon--gateway"></span> KVV-Startseite</a></span>
                    </li>


                    <li>
                        <span><a href="/portal/directtool/08051015-147d-4496-925f-087ff9d50ff9/"><span id="footer-link-icon--exams"></span> Exams</a></span>
                    </li>


                    <li>
                        <span><a href="/mvs2/map/"><span id="footer-link-icon--map"></span> Rooms</a></span>
                    </li>


                    <li>
                        <span><a href="/portal/directtool/b8e2dff0-81d8-484d-863b-af344906d10a/"><span id="footer-link-icon--sitebrowser"></span> Site Browser</a></span>
                    </li>


                    <li>
                        <span><a href="/mvs2/"><span id="footer-link-icon--link"></span> Modulverwaltung</a></span>
                    </li>


                    <li>
                        <span><a href="/evento/"><span id="footer-link-icon--link"></span> Eventline-Ansichten</a></span>
                    </li>


                    <li>
                        <span><a href="/portal/help/TOCDisplay/content.hlp?docId=accessibilityinformation" target="_blank"><span id="footer-link-icon--a11y"></span> Accessibility Information</a></span>
                    </li>


            </ul>

            <ul class="Mrphs-footer--nav Mrphs-footer--nav__project">
                <li id="Mrphs-footer--nav__project--sakai">


                        <a href="http://sakaiproject.org" target="_blank" class="external__link"><span class="Mrphs-footer--nav__project--poweredby">Powered by Sakai</span><span class="skip external">(Opens in a new window)</span>
                        </a>


                </li>
                <li class="Mrphs-footer--nav__project--copyright">Copyright 2003-2018 The Apereo Foundation. All rights reserved. Portions of Sakai are copyrighted by other parties as described in the Acknowledgments screen.</li>
            </ul>

            <details class="Mrphs-footer--details Mrphs-footer--details__build-info">
                <summary>Build Info:</summary>
                <p class="Mrphs-footer--nav__build__panel">FUBMI-KVV - f113905 - Sakai 11.4 - Server tomcat1</p>
            </details>


                <details class="Mrphs-footer--details Mrphs-footer--details__server-time" aria-live="off">
                <summary>Server Time:</summary>


                    <span id="serverTime" class="Mrphs-footer--server-time" data-servertzdisplay="CEST" data-serverdateandgmtoffset="1524156444910"></span>
                </details>


        </footer>

        <div class="Mrphs-container Mrphs-container--extras">


    <div id="Mrphs-footerApp">




    </div>




        </div>         <div id="tutorial" class="Mrphs-tutorial Mrphs-modal"></div>


</div>
    </div>

    </div>


</div>


<!-- END VM includePageWithNav.vm -->

        </div> <!-- end Mrphs-portalWrapper -->
        <!-- END VM site.vm -->

            <script>
        var needJQuery = true;
        var secondJQuery = false;
        var notJQuery = false;
        var dollarEmpty = false;
        var dollarVersion = false;
        if ( window.$ ) {
              if ( window.$.fn && window.$.fn ) {
                 dollarVersion = window.$.fn.jquery;
              } else {
                 dollarVersion = 'not jQuery';
                 window.console && console.log('Dollar is defined but is not jQuery');
                 window.console && console.log($);
                 //Just have it reload this other $ afterward
                 notJQuery = true;
              }
         } else {
              dollarEmpty = true;
              dollarVersion = 'not present';
              if ( window.jQuery ) {
                  window.console && console.log('tool called jQuery.noConflict()');
              }
        }
        if ( window.jQuery ) {
            tver = jQuery.fn.jquery;
            if ( tver.indexOf('1.11.') == 0 ) {
                window.console && console.log('Using tool jQuery '+tver);
                needJQuery = false;
            } else {
                secondJQuery = true;
            }
        }
        if ( needJQuery ) {
            document.write('\x3Cscript src="/library/webjars/jquery/1.11.3/jquery.min.js?version=f113905">'+'\x3C/script>')
            document.write('\x3Cscript src="/library/webjars/jquery-migrate/1.4.0/jquery-migrate.min.js?version=f113905">'+'\x3C/script>')
            document.write('\x3Cscript src="/library/webjars/bootstrap/3.3.6/js/bootstrap.min.js?version=f113905">'+'\x3C/script>')
            document.write('\x3Cscript src="/library/webjars/jquery-ui/1.11.3/jquery-ui.min.js?version=f113905">'+'\x3C/script>')
            document.write('\x3Clink rel="stylesheet" href="/library/webjars/jquery-ui/1.11.3/jquery-ui.min.css?version=f113905"/>')
            if (Modernizr.touch) {
              document.write('\x3Cscript type="text/javascript" src="/library/webjars/jquery-ui-touch-punch/0.2.3/jquery.ui.touch-punch.min.js?version=f113905">'+'\x3C/script>')
            }
            window.console && console.log('Portal scripts loaded JQ+MI+BS+UI');
        } else {
            if (typeof jQuery.migrateWarnings == 'undefined') {
                document.write('\x3Cscript type="text/javascript" src="/library/webjars/jquery-migrate/1.4.0/jquery-migrate.min.js?version=f113905">'+'\x3C/script>')
                window.console && console.log('Portal adding jQuery migrate');
            }
            if ( typeof jQuery.fn.popover == 'undefined') {
                document.write('\x3Cscript type="text/javascript" src="/library/webjars/bootstrap/3.3.6/js/bootstrap.min.js?version=f113905">'+'\x3C/script>')
                window.console && console.log('Portal adding Bootstrap');
            }
            if (typeof jQuery.ui == 'undefined') {
                document.write('\x3Cscript type="text/javascript" src="/library/webjars/jquery-ui/1.11.3/jquery-ui.min.js?version=f113905">'+'\x3C/script>')
		document.write('\x3Clink rel="stylesheet" href="/library/webjars/jquery-ui/1.11.3/jquery-ui.min.css?version=f113905"/>')
                window.console && console.log('Portal adding jQuery UI');
            }
            if (typeof jQuery.ui == 'undefined' || (typeof jQuery.ui.mouse != 'undefined' && typeof jQuery.ui.mouse.prototype._touchStart == 'undefined')) {
                document.write('\x3Cscript type="text/javascript" src="/library/webjars/jquery-ui-touch-punch/0.2.3/jquery.ui.touch-punch.min.js?version=f113905">'+'\x3C/script>')
                window.console && console.log('Portal adding jQuery UI Touch Punch for touch device support');
            }
        }
    </script>
    <script>
        $PBJQ = jQuery; // The Portal's jQuery (also in $ for now)
    </script>

                    <script src="/portal/scripts/sessionstoragemanager.js?version=f113905"></script>

        <!--[if lt IE 9]>
            <script src="//cdnjs.cloudflare.com/ajax/libs/html5shiv/3.7/html5shiv.min.js"></script>
<![endif]-->

        <script src="/library/js/trimpath-template-latest.js?version=f113905"></script>
        <script src="/library/js/jquery/bgiframe/jquery.bgiframe.min.js?version=f113905"></script>
        <script src="/library/js/jquery/cluetip/1.2.10/jquery.cluetip.min.js?version=f113905"></script>
        <script src="/library/skin/morpheus-default/js/morpheus.plugins.min.js?version=f113905"></script>
        <script src="/library/skin/morpheus-default/js/morpheus.scripts.min.js?version=f113905"></script>
        <script src="/library/webjars//pnotify/2.1.0/pnotify.core.min.js?version=f113905"></script>
        <script src="/library/js/jquery/qtip/jquery.qtip-latest.min.js?version=f113905"></script>
        <script src="/library/js/jquery/qtip/tutorial.js?version=f113905"></script>





                    <script>
                var sakaiPortalWindow = "";
                $PBJQ(document).ready(function() {
                    setupSkipNav();
                });
            </script>

        <script>
            // If we loaded a second jQuery, revert $ and jQuery to the first jQuery
            if ( secondJQuery ) {
                $PBJQ = jQuery.noConflict(true); // Safely return $ to the tool jQuery
                if ( ! dollarEmpty && !notJQuery ) jQuery = $;  // Return jQuery to point at the tool jQuery
            }
            if (notJQuery && !secondJQuery) {
                $PBJQ = jQuery.noConflict(true); // Safely return $ to the tool jQuery
                //Just set jQuery to be the same thing since it didn't exist before
                jQuery = $PBJQ;

            }
            window.console && console.log('Portal script load complete PBJQ='+$PBJQ.fn.jquery+' jQuery='+jQuery.fn.jquery+' $='+dollarVersion);

            $PBJQ(document).ready(function() {
                setupSiteNav();
                            });
        </script>

        <script>
        PNotify.prototype.options.styling = "jqueryui";
        function portal_check_pnotify() {
            $PBJQ.getJSON( "/direct/portal/notify.json", function( data ) {
                for(i=0; i<data.error.length; i++ ) {
                     $PBJQ(function(){
                        new PNotify({
                            title: 'Notice',
                            text: data.error[i],
                            type: 'notice'
                        });
                    });
                }
            });
        }
            </script>

        <!--[if lt IE 9]>
        <script src="/library/skin/morpheus-default/js/ie/sakai.portal.ie.js?version=f113905"></script>
<![endif]-->


         <link href="/pasystem-tool/stylesheets/pasystem.css?version=f113905" rel="stylesheet" property="stylesheet" type="text/css" />

<script>
// Work around the fact that several pages pull in very old versions
// of JQuery.
function paSystemJQueryOK() {
    if (!window.jQuery) {
        /* no jQuery at all */
        return false;
    }

    var version_numbers = jQuery.fn.jquery.split('.');

    /* >= 1.9+ */
    return (parseInt(version_numbers[0]) > 1) || (parseInt(version_numbers[0]) == 1 && parseInt(version_numbers[1]) >= 9);
}

if (paSystemJQueryOK()) {
  document.write('\x3Cscript src="/pasystem-tool/scripts/pasystem.js?version=f113905">\x3C/script>');
  document.write('\x3Cscript type="text/javascript" src="/pasystem-tool/scripts/featherlight.min.js?version=f113905">\x3C/script>');

  var pasystem = pasystem || {'loaded': true};
} else {
  console.log("PASystem not loaded for this page because jQuery is missing or unsupported.");
}
</script>
<script id="pasystemBannerAlertsTemplate" type="text/template">
  <div class="pasystem-banner-alert pasystem-banner-${type}" id="${id}">
    <span class="pasystem-banner-alert-message">${message}</span>
    {if dismissible}<a class="pasystem-banner-alert-close" href="javascript:void(0)"></a>{/if}
  </div>
</script>
<script id="pasystemBannerAlertsToggleTemplate" type="text/template">
  <li class="pasystem-banner-alert-toggle-list-item">
    <a href="javscript:void(0)" class="pasystem-banner-alert-toggle">
      Show System Alerts
    </a>
  </li>
</script>
<script>
  if (pasystem) {
    pasystem['banners'] = new PASystemBannerAlerts([], "ca5175f2436e983a77d5fb69bf1d3e1069cbb78912c520e5ba25716bcceeb516");
  }
</script>
<script type="text/template" id="popup-container-content">

</script>

<script type="text/template" id="popup-container-footer">
<div class="popup-container-footer">
  <a href="javascript:void(0)" class="popup-dismiss-button permanent" id="popup-acknowledged-button">Don't show this again</a>
  <a href="javascript:void(0)" class="popup-dismiss-button temporary" id="popup-later-button">Remind me later</a>
</div>
</script>


<script id="timezoneBannerTemplate" type="text/template">
  <span>
    Your computer's time zone <span class="computerTimezone">${reportedTimezone}</span> does not match your account's time zone of <span class="prefsTimezone">${prefsTimezone}</span>. <span class="pasystem-tz-click-here"><a href="${setTimezoneUrl}" id="setTimezoneMsg">Click here to update your time zone preferences</a></span>.
  </span>
</script>

<script>
  if (pasystem) {
    new PASystemTimezoneChecker().checkTimezone();
  }
</script>


        <!-- START VM includeCookieNotice.vm -->
<!-- END VM includeCookieNotice.vm -->



    </body>
</html>
